Samylla
…
12/02/2020

Samylla Artigo 2 Perxido

Base de dados: Proporo da Mediana

incio base: Proporo mediana -

1 - Importar os dados dos Excel

library(readxl)
base <- read_excel("~/Samylla/base.xlsx", sheet = "Prop_Median")
base

## # A tibble: 36 x 5
##    Sample    Day    Species   Yes     No
##    <chr>     <chr>  <chr>   <dbl>  <dbl>
##  1 Raw Water 0      Cyano   0.858 0.142 
##  2 Raw Water 0      Algae   1     0     
##  3 8 g/PDO   0      Cyano   0.866 0.134 
##  4 8 g/PDO   0      Algae   0.92  0.0800
##  5 Control   0      Cyano   0.904 0.0959
##  6 Control   0      Algae   0.927 0.0732
##  7 Raw Water 72 hrs Cyano   0.985 0.0149
##  8 Raw Water 72 hrs Algae   0.962 0.0377
##  9 8 g/PDO   72 hrs Cyano   0.571 0.429 
## 10 8 g/PDO   72 hrs Algae   0.571 0.429 
## # ... with 26 more rows
…
